/project/source/myninja/src/main/java/entity/User.java
/project/source/myninja/src/main/java/conf/Routes.java
/project/source/myninja/src/main/java/conf/Module.java
/project/source/myninja/src/main/java/controllers/ApplicationController.java
/project/source/myninja/src/main/java/filter/LoginFilter.java
